{
    "source": {
        "include": "app/src",
        "includePattern": ".+\\.js(doc|x)?$",
        "excludePattern": "(^|\\|\/|\\\\)_"
    },
    "plugins": ["node_modules/jsdoc-babel"],
    "babel": {
        "extensions": ["js", "es6", "jsx", "jsdoc"],
        "presets": ["es2015"],
        "plugins": [
            "transform-flow-strip-types"
        ]
    },
    "templates": {
        "cleverLinks": true,
        "monospaceLinks": true
    },
    "opts": {
        "recurse": true,
        "explain": false,
        "destination": "documentation"
    }
}